[
    {
        "placeName": "cox's bazar",
        "address": "chittagong",
        "rating": 5,
        "picture": "./picture/photo1.png"
    },
    {
        "placeName": "rangamati",
        "address": "chittagong",
        "rating": 4,
        "picture": "./picture/photo2.png"
    },
    {
        "placeName": "saint martin",
        "address": "chittagong",
        "rating": 3,
        "picture": "./picture/photo1.png"
    },
    {
        "placeName": "lalbag fort",
        "address": "dhaka",
        "rating": 5,
        "picture": "./picture/photo3.png"
    }
]